{
  "allowed_chars": {
    "de": "abcdefghijklmnopqrstuvwxyz ",
    "es": "abcdefghijklmnopqrstuvwxyz áéíóúýñü",
    "fr": "abcdefghijklmnopqrstuvwxyz' àâæçèéêëîïôœùûüÿ",
    "it": "abcdefghijklmnopqrstuvwxyz' ",
    "pl": "abcdefghijklmnopqrstuvwxyz ćńóśźżąęł"
  },
  "number_pattern": {
    "de": {
      "decimal": "(?:[\\s][+-])?[0-9]+(?:(?:[.][0-9]{3}(?:(?=[^0-9])))+)?(?:[,][0-9]+)?",
      "ordinal": "[0-9]+[.] "
    },
    "es": {
      "decimal": "(?:[\\s][+-])?[0-9]+(?:(?:[.][0-9]{3}(?:(?=[^0-9])))+)?(?:[,][0-9]+)?",
      "ordinal": "[0-9]+[.] "
    },
    "fr": {
      "decimal": "(?:[\\s][+-])?[0-9]+(?:(?:[.][0-9]{3}(?:(?=[^0-9])))+)?(?:[,][0-9]+)?",
      "ordinal": "[0-9]+[.] "
    },
    "it": {
      "decimal": "(?:[\\s][+-])?[0-9]+(?:(?:[.][0-9]{3}(?:(?=[^0-9])))+)?(?:[,][0-9]+)?",
      "ordinal": "[0-9]+[.] "
    },
    "pl": {
      "decimal": "(?:[\\s][+-])?[0-9]+(?:(?:[.][0-9]{3}(?:(?=[^0-9])))+)?(?:[,][0-9]+)?",
      "ordinal": "[0-9]+[.] "
    }
  },
  "umlaut_replacers": {
    "de": {
      "ß": "ss",
      "ä": "ae",
      "ö": "oe",
      "ü": "ue"
    },
    "es": {},
    "fr": {},
    "it": {
      "à": "a",
      "è": "e",
      "é": "e",
      "ì": "i",
      "î": "i",
      "ò": "o",
      "ó": "o",
      "ù": "u"
    },
    "pl": {}
  },
  "char_replacers": {
    "de": {
      "àáâãåāăąǟǡǻȁȃȧ": "a",
      "æǣǽ": "ä",
      "çćĉċč": "c",
      "èéêëēĕėęěȅȇȩε": "e",
      "ìíîïĩīĭįıȉȋ": "i",
      "ñńņňŉŋǹ": "n",
      "òóôõøōŏőǫǭǿȍȏðο": "o",
      "ùúûũūŭůűųȕȗ": "u",
      "ýÿŷ": "y",
      "ďđ": "d",
      "ĝğġģǥǧǵ": "g",
      "ĥħȟ": "h",
      "ĵǰ": "j",
      "ķĸǩǩκ": "k",
      "ĺļľŀł": "l",
      "œ": "ö",
      "ŕŗřȑȓ": "r",
      "śŝşšș": "s",
      "ţťŧț": "t",
      "ŵ": "w",
      "źżžȥ": "z",
      "м": "m",
      "–-­/:(),.!?\"[]": " "
    },
    "es": {
      "àâãåāăąǟǡǻȁȃȧ": "a",
      "æǣǽä": "ae",
      "çćĉċč": "c",
      "èêëēĕėęěȅȇȩε": "e",
      "ìîïĩīĭįıȉȋ": "i",
      "òôõøōŏőǫǭǿȍȏðο": "o",
      "ùûũūŭůűųȕȗ": "u",
      "ÿŷ": "y",
      "ďđ": "d",
      "ĝğġģǥǧǵ": "g",
      "ĥħȟ": "h",
      "ĵǰ": "j",
      "ķĸǩǩκ": "k",
      "ĺļľŀł": "l",
      "ńņňŉŋǹ": "n",
      "œö": "oe",
      "ŕŗřȑȓ": "r",
      "śŝşšș": "s",
      "ţťŧț": "t",
      "ŵ": "w",
      "źżžȥ": "z",
      "м": "m",
      "–-­/:(),.!?\"[]": " "
    },
    "fr": {
      "áãåāăąǟǡǻȁȃȧ": "a",
      "ìíĩīĭįıȉȋ": "i",
      "ñńņňŉŋǹ": "n",
      "òóõøōŏőǫǭǿȍȏðο": "o",
      "ö": "œ",
      "úũūŭůűųȕȗ": "u",
      "ýŷ": "y",
      "ćĉċč": "c",
      "ďđ": "d",
      "ēĕėęěȅȇȩε": "e",
      "ĝğġģǥǧǵ": "g",
      "ĥħȟ": "h",
      "ĵǰ": "j",
      "ķĸǩǩκ": "k",
      "ĺļľŀł": "l",
      "ŕŗřȑȓ": "r",
      "śŝşšș": "s",
      "ţťŧț": "t",
      "ŵ": "w",
      "źżžȥ": "z",
      "ǣǽä": "æ",
      "м": "m",
      "–-­/:(),.!?\"[]": " ",
      "’": "'"
    },
    "it": {
      "áâãåāăąǟǡǻȁȃȧ": "a",
      "æǣǽ": "ae",
      "çćĉċč": "c",
      "êëēĕėęěȅȇȩε": "e",
      "íïĩīĭįıȉȋ": "i",
      "ñńņňŉŋǹ": "n",
      "ôõøōŏőǫǭǿȍȏðο": "o",
      "úûũūŭůűųȕȗ": "u",
      "ýÿŷ": "y",
      "ďđ": "d",
      "ĝğġģǥǧǵ": "g",
      "ĥħȟ": "h",
      "ĵǰ": "j",
      "ķĸǩǩκ": "k",
      "ĺļľŀł": "l",
      "œ": "oe",
      "ŕŗřȑȓ": "r",
      "śŝşšș": "s",
      "ţťŧț": "t",
      "ŵ": "w",
      "źżžȥ": "z",
      "м": "m",
      "–-­/:(),.!?\"[]": " ",
      "’": "'"
    },
    "pl": {
      "àáâãåāăǟǡǻȁȃȧ": "a",
      "æǣǽ": "ae",
      "çĉċč": "c",
      "èéêëēĕėěȅȇȩε": "e",
      "ìíîïĩīĭįıȉȋ": "i",
      "ñņňŉŋǹ": "n",
      "òôõøōŏőǫǭǿȍȏðο": "o",
      "ùúûũūŭůűųȕȗ": "u",
      "ýÿŷ": "y",
      "ďđ": "d",
      "ĝğġģǥǧǵ": "g",
      "ĥħȟ": "h",
      "ĵǰ": "j",
      "ķĸǩǩκ": "k",
      "ĺļľŀ": "l",
      "œ": "oe",
      "ŕŗřȑȓ": "r",
      "ŝşšș": "s",
      "ţťŧț": "t",
      "ŵ": "w",
      "žȥ": "z",
      "м": "m",
      "–-­/:(),.!?\"[]": " "
    }
  },
  "special_replacers": {
    "de": {
      " m / s ": "meter pro sekunde",
      " m/s ": "meter pro sekunde",
      "€": "euro",
      "$": "dollar",
      "£": "pfund",
      "%": "prozent",
      "‰": "promille",
      "&": "und",
      "§": "paragraph",
      "m³": "kubikmeter",
      "km²": "quadratkilometer",
      "m²": "quadratmeter",
      "co2": "c o zwei",
      " ft ": "fuss",
      "±": "plus minus",
      "°c": "grad celsius",
      "°": "grad",
      " kg ": "kilogramm",
      "α": "alpha",
      "β": "beta",
      "γ": "gamma",
      "δ": "delta",
      "@": "at",
      "½": "einhalb",
      "⅓": "ein drittel",
      "¼": "ein viertel",
      "1910er": "neunzehnhundertzehner",
      "1920er": "neunzehnhundertzwanziger",
      "1930er": "neunzehnhundertdreißiger",
      "1940er": "neunzehnhundertvierziger",
      "1950er": "neunzehnhundertfünfziger",
      "1960er": "neunzehnhundertsechziger",
      "1970er": "neunzehnhundertsiebziger",
      "1980er": "neunzehnhundertachtziger",
      "1990er": "neunzehnhundertneunziger",
      "10er": "zehner",
      "20er": "zwanziger",
      "30er": "dreißiger",
      "40er": "vierziger",
      "50er": "fünfziger",
      "60er": "sechziger",
      "70er": "siebziger",
      "80er": "achtziger",
      "90er": "neunziger",
      "eins punkt null null null punkt null null null punkt null null null": "eine milliarde",
      "punkt null null null punkt null null null punkt null null null": "milliarden",
      "eins punkt null null null punkt null null null": "eine million",
      "punkt null null null punkt null null null": "millionen"
    },
    "es": {
      " m/s ": "metros por segundo",
      " m / s ": "metros por segundo",
      "€": "euro",
      "$": "dólar",
      "£": "libra",
      "%": "por ciento",
      "‰": "promille",
      "&": "y",
      "§": "párrafo",
      "m³": "metros cúbicos",
      "km²": "millas cuadradas",
      "m²": "metros cuadrados",
      "co2": "c o dos",
      " ft ": "pie",
      "±": "más menos",
      "°c": "grad celsius",
      "°": "grad",
      " kg ": "kilogramos",
      "α": "alfa",
      "β": "beta",
      "γ": "gamma",
      "δ": "delta",
      "@": "at",
      "½": "uno y medio",
      "⅓": "un tercio",
      "¼": "un cuarto",
      "℆": "cada una",
      "un punto cero cero cero cero cero cero cero cero cero": "un billón",
      "punto cero cero cero cero punto cero cero cero punto cero cero": "billones",
      "un punto cero cero cero cero punto cero cero cero": "un millón",
      "punto cero cero cero cero punto cero cero cero": "millones"
    },
    "fr": {
      " m / s ": "mètres par seconde",
      " m/s ": "mètres par seconde",
      "€": "euro",
      "$": "dollar",
      "£": "livre",
      "%": "pourcentage",
      "‰": "promille",
      "&": "et",
      "§": "paragraphe",
      "m³": "mètres cubes",
      "km²": "miles carrés",
      "m²": "mètres carrés",
      "co2": "c o two",
      " ft ": "pied",
      "±": "plus moins",
      "°c": "grad celsius",
      "°": "grad",
      " kg ": "kilogrammes",
      "α": "alpha",
      "β": "beta",
      "γ": "gamma",
      "δ": "delta",
      "@": "at",
      "½": "un et demi",
      "⅓": "un tiers",
      "¼": "un quart",
      "un point zéro zéro zéro zéro point zéro zéro zéro point zéro zéro zéro": "un milliard",
      "point zéro zéro zéro point zéro zéro point zéro zéro point zéro zéro": "milliards",
      "un point zéro zéro zéro zéro point zéro zéro zéro zéro": "un million",
      "point zéro zéro zéro zéro point zéro zéro zéro zéro": "millions"
    },
    "it": {
      " m / s ": "metri al secondo",
      " m/s ": "metri al secondo",
      "€": "euro",
      "$": "dollaro",
      "£": "sterlina",
      "%": "percento",
      "‰": "promille",
      "&": "e",
      "§": "paragrafo",
      "m³": "metri cubi",
      "km²": "miglia quadrate",
      "m²": "metri quadrati",
      "co2": "c o due",
      " ft ": "piede",
      "±": "più meno",
      "°c": "grad celsius",
      "°": "grad",
      " kg ": "chilogrammi",
      "α": "alfa",
      "β": "beta",
      "γ": "gamma",
      "δ": "delta",
      "@": "at",
      "½": "uno e mezzo",
      "⅓": "un terzo",
      "¼": "un quarto",
      "un punto zero zero zero zero zero zero zero zero zero zero zero zero zero zero zero zero zero": "un miliardo",
      "punto zero zero zero zero zero zero zero zero zero zero zero zero zero zero zero zero zero": "miliardi",
      "un punto zero zero zero zero zero zero zero zero zero zero zero zero": "un milione",
      "punto zero zero zero zero zero zero zero zero zero zero zero zero": "milioni"
    },
    "pl": {
      " m / s ": "metry na sekundę",
      " m/s ": "metry na sekundę",
      "€": "euro",
      "$": "dolar",
      "£": "funt",
      "%": "procent",
      "‰": "promila",
      "&": "i",
      "§": "paragraf",
      "m³": "metrów sześciennych",
      "km²": "mile kwadratowe",
      "m²": "metry kwadratowe",
      "co2": "c o dwa",
      " ft ": "stopa",
      "±": "plus minus",
      "°c": "grad celsius",
      "°": "grad",
      " kg ": "kilogramy",
      "α": "alpha",
      "β": "beta",
      "γ": "gamma",
      "δ": "delta",
      "@": "w",
      "½": "półtora",
      "⅓": "jedna trzecia",
      "¼": "jedna czwarta",
      "jeden punkt zero zero zero zero punkt zero zero zero zero punkt zero zero zero zero": "jeden miliard",
      "punkt zerowy zero zero punkt zerowy zero punkt zerowy zero punkt zerowy zero zero": "miliardy",
      "jeden punkt zero zero zero zero punkt zero zero zero zero zero": "jeden milion",
      "punkt zerowy zero zero zero punkt zerowy zero zero zero": "miliony"
    }
  }
}
